Atividade04ME315
…
# Estatísticas por aeroporto destino:
res$estatisticas

# A tibble: 130 × 5
   DESTINATION_AIRPORT dest_city dest_state media_atraso n_voos
   <chr>               <chr>     <chr>             <dbl>  <int>
 1 10140               <NA>      <NA>              19         2
 2 10397               <NA>      <NA>              -3        10
 3 10423               <NA>      <NA>              -8         1
 4 10529               <NA>      <NA>               0         1
 5 10599               <NA>      <NA>             126         1
 6 10693               <NA>      <NA>               2         1
 7 10721               <NA>      <NA>              -3.75      4
 8 10800               <NA>      <NA>              -8         1
 9 10821               <NA>      <NA>              -3.5       6
10 11042               <NA>      <NA>             -11         1
# ℹ 120 more rows
…
