Manipulação de Banco de Dados - Julia
…
Instalar/Carregar pacotes na Julia

using Pkg

Pkg.add(["DataFrames","CSV","RDatasets","BenchmarkTools","Statistics"])

using DataFrames, CSV, RDatasets, BenchmarkTools, Statistics

Leitura de dados (Julia)

# Usarei o iris do RDatasets para padronizar entre linguagens
iris = dataset("datasets", "iris")

150×5 DataFrame
 Row │ SepalLength  SepalWidth  PetalLength  PetalWidth  Species
     │ Float64      Float64     Float64      Float64     Cat…
─────┼─────────────────────────────────────────────────────────────
   1 │         5.1         3.5          1.4         0.2  setosa
   2 │         4.9         3.0          1.4         0.2  setosa
   3 │         4.7         3.2          1.3         0.2  setosa
   4 │         4.6         3.1          1.5         0.2  setosa
   5 │         5.0         3.6          1.4         0.2  setosa
   6 │         5.4         3.9          1.7         0.4  setosa
   7 │         4.6         3.4          1.4         0.3  setosa
   8 │         5.0         3.4          1.5         0.2  setosa
  ⋮  │      ⋮           ⋮            ⋮           ⋮           ⋮
 144 │         6.8         3.2          5.9         2.3  virginica
 145 │         6.7         3.3          5.7         2.5  virginica
 146 │         6.7         3.0          5.2         2.3  virginica
 147 │         6.3         2.5          5.0         1.9  virginica
 148 │         6.5         3.0          5.2         2.0  virginica
 149 │         6.2         3.4          5.4         2.3  virginica
 150 │         5.9         3.0          5.1         1.8  virginica
                                                   135 rows omitted
…
Seleção & Filtragem (Julia)

# Selecionar colunas e filtrar linhas
subset_iris = select(iris, [:SepalLength, :SepalWidth, :Species])

150×3 DataFrame
 Row │ SepalLength  SepalWidth  Species
     │ Float64      Float64     Cat…
─────┼────────────────────────────────────
   1 │         5.1         3.5  setosa
   2 │         4.9         3.0  setosa
   3 │         4.7         3.2  setosa
   4 │         4.6         3.1  setosa
   5 │         5.0         3.6  setosa
   6 │         5.4         3.9  setosa
   7 │         4.6         3.4  setosa
   8 │         5.0         3.4  setosa
  ⋮  │      ⋮           ⋮           ⋮
 144 │         6.8         3.2  virginica
 145 │         6.7         3.3  virginica
 146 │         6.7         3.0  virginica
 147 │         6.3         2.5  virginica
 148 │         6.5         3.0  virginica
 149 │         6.2         3.4  virginica
 150 │         5.9         3.0  virginica
                          135 rows omitted

filtered = subset(subset_iris, :SepalLength => x -> x .> 5.5)

91×3 DataFrame
 Row │ SepalLength  SepalWidth  Species
     │ Float64      Float64     Cat…
─────┼─────────────────────────────────────
   1 │         5.8         4.0  setosa
   2 │         5.7         4.4  setosa
   3 │         5.7         3.8  setosa
   4 │         7.0         3.2  versicolor
   5 │         6.4         3.2  versicolor
   6 │         6.9         3.1  versicolor
   7 │         6.5         2.8  versicolor
   8 │         5.7         2.8  versicolor
  ⋮  │      ⋮           ⋮           ⋮
  85 │         6.8         3.2  virginica
  86 │         6.7         3.3  virginica
  87 │         6.7         3.0  virginica
  88 │         6.3         2.5  virginica
  89 │         6.5         3.0  virginica
  90 │         6.2         3.4  virginica
  91 │         5.9         3.0  virginica
                            76 rows omitted
…
by_species

3×3 DataFrame
 Row │ Species     SepalLength_mean  SepalWidth_mean
     │ Cat…        Float64           Float64
─────┼───────────────────────────────────────────────
   1 │ setosa                 5.006            3.428
   2 │ versicolor             5.936            2.77
   3 │ virginica              6.588            2.974

Pivot (wide/long) (Julia)

long = stack(iris, [:SepalLength,:SepalWidth], variable_name=:Measure, value_name=:Value)

300×5 DataFrame
 Row │ PetalLength  PetalWidth  Species    Measure      Value
     │ Float64      Float64     Cat…       String       Float64
─────┼──────────────────────────────────────────────────────────
   1 │         1.4         0.2  setosa     SepalLength      5.1
   2 │         1.4         0.2  setosa     SepalLength      4.9
   3 │         1.3         0.2  setosa     SepalLength      4.7
   4 │         1.5         0.2  setosa     SepalLength      4.6
   5 │         1.4         0.2  setosa     SepalLength      5.0
   6 │         1.7         0.4  setosa     SepalLength      5.4
   7 │         1.4         0.3  setosa     SepalLength      4.6
   8 │         1.5         0.2  setosa     SepalLength      5.0
  ⋮  │      ⋮           ⋮           ⋮           ⋮          ⋮
 294 │         5.9         2.3  virginica  SepalWidth       3.2
 295 │         5.7         2.5  virginica  SepalWidth       3.3
 296 │         5.2         2.3  virginica  SepalWidth       3.0
 297 │         5.0         1.9  virginica  SepalWidth       2.5
 298 │         5.2         2.0  virginica  SepalWidth       3.0
 299 │         5.4         2.3  virginica  SepalWidth       3.4
 300 │         5.1         1.8  virginica  SepalWidth       3.0
                                                285 rows omitted
…
